module gitlab.com/ziggornif/go-event-streaming-consumer

go 1.17

require github.com/nats-io/nats.go v1.13.1-0.20211122170419-d7c1d78a50fc

require (
	github.com/golang/protobuf v1.5.2 // indirect
	github.com/nats-io/nats-server/v2 v2.6.6 // indirect
	github.com/nats-io/nkeys v0.3.0 // indirect
	github.com/nats-io/nuid v1.0.1 // indirect
	golang.org/x/crypto v0.0.0-20210616213533-5ff15b29337e // indirect
	google.golang.org/protobuf v1.27.1 // indirect
)
